…
Grouping
========================================================

`dplyr` verbs become particularly powerful when used in conjunction with *groups* we define in the dataset. The `group_by` function converts an existing data frame into a grouped `tbl`.


```r
library(dplyr)
cars %>%
  group_by(speed)
```

```
Source: local data frame [50 x 2]
Groups: speed [19]

   speed  dist
   <dbl> <dbl>
1      4     2
2      4    10
3      7     4
4      7    22
5      8    16
6      9    10
7     10    18
8     10    26
9     10    34
10    11    17
# ... with 40 more rows
```
…
Introducting `babynames`
========================================================


```r
library(babynames)
babynames
```

```
# A tibble: 1,825,433 x 5
    year   sex      name     n       prop
   <dbl> <chr>     <chr> <int>      <dbl>
1   1880     F      Mary  7065 0.07238359
2   1880     F      Anna  2604 0.02667896
3   1880     F      Emma  2003 0.02052149
4   1880     F Elizabeth  1939 0.01986579
5   1880     F    Minnie  1746 0.01788843
6   1880     F  Margaret  1578 0.01616720
7   1880     F       Ida  1472 0.01508119
8   1880     F     Alice  1414 0.01448696
9   1880     F    Bertha  1320 0.01352390
10  1880     F     Sarah  1288 0.01319605
# ... with 1,825,423 more rows
```
Summarizing babynames
========================================================

What does this calculate?


```r
babynames %>%
  group_by(year, sex) %>% 
  summarise(prop = max(prop), 
            name = name[which.max(prop)])
```

```
Source: local data frame [270 x 4]
Groups: year [?]

    year   sex       prop  name
   <dbl> <chr>      <dbl> <chr>
1   1880     F 0.07238359  Mary
2   1880     M 0.08154561  John
3   1881     F 0.06999069  Mary
4   1881     M 0.08098149  John
5   1882     F 0.07042473  Mary
6   1882     M 0.07831488  John
7   1883     F 0.06673108  Mary
8   1883     M 0.07907183  John
9   1884     F 0.06698985  Mary
10  1884     M 0.07648626  John
# ... with 260 more rows
```
…
