…
Reshaping datasets
========================================================

In honor of the late [Hans Rosling](https://en.wikipedia.org/wiki/Hans_Rosling), we'll use the `gapminder` dataset today.


```r
library(dplyr)
library(gapminder)
gapminder
```

```
# A tibble: 1,704 x 6
   country     continent  year lifeExp      pop gdpPercap
   <fct>       <fct>     <int>   <dbl>    <int>     <dbl>
 1 Afghanistan Asia       1952    28.8  8425333      779.
 2 Afghanistan Asia       1957    30.3  9240934      821.
 3 Afghanistan Asia       1962    32.0 10267083      853.
 4 Afghanistan Asia       1967    34.0 11537966      836.
 5 Afghanistan Asia       1972    36.1 13079460      740.
 6 Afghanistan Asia       1977    38.4 14880372      786.
 7 Afghanistan Asia       1982    39.9 12881816      978.
 8 Afghanistan Asia       1987    40.8 13867957      852.
 9 Afghanistan Asia       1992    41.7 16317921      649.
10 Afghanistan Asia       1997    41.8 22227415      635.
# … with 1,694 more rows
```
…
Reshaping data
========================================================

Put this into long (or _tidy_) format--where every row is a different observation. For this we use `tidyr::gather`, which asks: what's the data source? Name of variable column (i.e. that will get old names of columns)? Name of data column? And what columns to operate on?


```r
library(tidyr)
Egypt %>% gather(variable, value, lifeExp, pop, gdpPercap)
```

```
# A tibble: 36 x 3
    year variable value
   <int> <chr>    <dbl>
 1  1952 lifeExp   41.9
 2  1957 lifeExp   44.4
 3  1962 lifeExp   47.0
 4  1967 lifeExp   49.3
 5  1972 lifeExp   51.1
 6  1977 lifeExp   53.3
 7  1982 lifeExp   56.0
 8  1987 lifeExp   59.8
 9  1992 lifeExp   63.7
10  1997 lifeExp   67.2
# … with 26 more rows
```
…
Grouping
========================================================

`dplyr` verbs become particularly powerful when used in conjunction with *groups* we define in the dataset. This doesn't change the data but instead groups it, ready for the next operation we perform.


```r
library(dplyr)
gapminder %>% 
  group_by(country)
```

```
# A tibble: 1,704 x 6
# Groups:   country [142]
   country     continent  year lifeExp      pop gdpPercap
   <fct>       <fct>     <int>   <dbl>    <int>     <dbl>
 1 Afghanistan Asia       1952    28.8  8425333      779.
 2 Afghanistan Asia       1957    30.3  9240934      821.
 3 Afghanistan Asia       1962    32.0 10267083      853.
 4 Afghanistan Asia       1967    34.0 11537966      836.
 5 Afghanistan Asia       1972    36.1 13079460      740.
 6 Afghanistan Asia       1977    38.4 14880372      786.
 7 Afghanistan Asia       1982    39.9 12881816      978.
 8 Afghanistan Asia       1987    40.8 13867957      852.
 9 Afghanistan Asia       1992    41.7 16317921      649.
10 Afghanistan Asia       1997    41.8 22227415      635.
# … with 1,694 more rows
```


Summarising
========================================================


```r
gapminder %>% 
  group_by(country) %>% 
  summarise(maxpop = max(pop))
```

```
# A tibble: 142 x 2
   country        maxpop
   <fct>           <dbl>
 1 Afghanistan  31889923
 2 Albania       3600523
 3 Algeria      33333216
 4 Angola       12420476
 5 Argentina    40301927
 6 Australia    20434176
 7 Austria       8199783
 8 Bahrain        708573
 9 Bangladesh  150448339
10 Belgium      10392226
# … with 132 more rows
```


Summarising
========================================================


```r
gapminder %>% 
  group_by(country) %>% 
  summarise(maxpop = max(pop))
```

```
# A tibble: 142 x 2
   country        maxpop
   <fct>           <dbl>
 1 Afghanistan  31889923
 2 Albania       3600523
 3 Algeria      33333216
 4 Angola       12420476
 5 Argentina    40301927
 6 Australia    20434176
 7 Austria       8199783
 8 Bahrain        708573
 9 Bangladesh  150448339
10 Belgium      10392226
# … with 132 more rows
```
…
Introducing `babynames`
========================================================

Explore `babynames` a bit. How many rows, columns does it have? How many unique names?


```r
library(babynames)
babynames
```

```
# A tibble: 1,924,665 x 5
    year sex   name          n   prop
   <dbl> <chr> <chr>     <int>  <dbl>
 1  1880 F     Mary       7065 0.0724
 2  1880 F     Anna       2604 0.0267
 3  1880 F     Emma       2003 0.0205
 4  1880 F     Elizabeth  1939 0.0199
 5  1880 F     Minnie     1746 0.0179
 6  1880 F     Margaret   1578 0.0162
 7  1880 F     Ida        1472 0.0151
 8  1880 F     Alice      1414 0.0145
 9  1880 F     Bertha     1320 0.0135
10  1880 F     Sarah      1288 0.0132
# … with 1,924,655 more rows
```
Summarizing babynames
========================================================

What does this calculate?


```r
babynames %>%
  group_by(year, sex) %>% 
  summarise(prop = max(prop), 
            name = name[which.max(prop)])
```

```
# A tibble: 276 x 4
# Groups:   year [?]
    year sex     prop name 
   <dbl> <chr>  <dbl> <chr>
 1  1880 F     0.0724 Mary 
 2  1880 M     0.0815 John 
 3  1881 F     0.0700 Mary 
 4  1881 M     0.0810 John 
 5  1882 F     0.0704 Mary 
 6  1882 M     0.0783 John 
 7  1883 F     0.0667 Mary 
 8  1883 M     0.0791 John 
 9  1884 F     0.0670 Mary 
10  1884 M     0.0765 John 
# … with 266 more rows
```
…
