…
Clean, concise, and consistent syntax.

In general dplyr is ~10x faster than the older plyr package. (And plyr was ~10x faster than base R.)

Same code can work with data frames or remote databases.

Grouping

dplyr verbs become particularly powerful when used in conjunction with groups we define in the dataset. This doesnt change the data but instead groups it, ready for the next operation we perform.

library(dplyr)
gapminder %>% 
  group_by(country)

Source: local data frame [1,704 x 6]
Groups: country [142]

       country continent  year lifeExp      pop gdpPercap
        <fctr>    <fctr> <int>   <dbl>    <int>     <dbl>
1  Afghanistan      Asia  1952  28.801  8425333  779.4453
2  Afghanistan      Asia  1957  30.332  9240934  820.8530
3  Afghanistan      Asia  1962  31.997 10267083  853.1007
4  Afghanistan      Asia  1967  34.020 11537966  836.1971
5  Afghanistan      Asia  1972  36.088 13079460  739.9811
6  Afghanistan      Asia  1977  38.438 14880372  786.1134
7  Afghanistan      Asia  1982  39.854 12881816  978.0114
8  Afghanistan      Asia  1987  40.822 13867957  852.3959
9  Afghanistan      Asia  1992  41.674 16317921  649.3414
10 Afghanistan      Asia  1997  41.763 22227415  635.3414
# ... with 1,694 more rows
…
Summarizing babynames

What does this calculate?

babynames %>%
  group_by(year, sex) %>% 
  summarise(prop = max(prop), 
            name = name[which.max(prop)])

Source: local data frame [272 x 4]
Groups: year [?]

    year   sex       prop  name
   <dbl> <chr>      <dbl> <chr>
1   1880     F 0.07238433  Mary
2   1880     M 0.08154630  John
3   1881     F 0.06999140  Mary
4   1881     M 0.08098299  John
5   1882     F 0.07042594  Mary
6   1882     M 0.07831617  John
7   1883     F 0.06673386  Mary
8   1883     M 0.07907324  John
9   1884     F 0.06699083  Mary
10  1884     M 0.07648751  John
# ... with 262 more rows
…
